2019-02-04 21:36:44,912:DEBUG:certbot.main:certbot version: 0.30.2
2019-02-04 21:36:44,912:DEBUG:certbot.main:Arguments: ['--standalone', '--config-dir', '/certs/config', '--logs-dir', '/certs/logs', '--work-dir', '/certs/workdir', '-d', 'muffs.ru', '-d', 'www.muffs.ru', '-d', 'blog.muffs.ru', '-d', 'mail.muffs.ru', '-d', '0.ns.muffs.ru', '-d', 'mx.muffs.ru', '-d', 'imap.muffs.ru', '-d', 'smtp.muffs.ru', '--preferred-challenges', 'http', '--agree-tos', '-n', '-m', 'info@muffs.ru', '--keep-until-expiring']
2019-02-04 21:36:44,912:DEBUG:certbot.main:Discovered plugins: PluginsRegistry(PluginEntryPoint#apache,PluginEntryPoint#manual,PluginEntryPoint#nginx,PluginEntryPoint#null,PluginEntryPoint#standalone,PluginEntryPoint#webroot)
2019-02-04 21:36:44,927:DEBUG:certbot.log:Root logging level set at 20
2019-02-04 21:36:44,927:INFO:certbot.log:Saving debug log to /certs/logs/letsencrypt.log
2019-02-04 21:36:44,928:DEBUG:certbot.plugins.selection:Requested authenticator standalone and installer None
2019-02-04 21:36:45,002:DEBUG:certbot.plugins.selection:Single candidate plugin: * standalone
Description: Spin up a temporary webserver
Interfaces: IAuthenticator, IPlugin
Entry point: standalone = certbot.plugins.standalone:Authenticator
Initialized: <certbot.plugins.standalone.Authenticator object at 0x7f6319e4eed0>
Prep: True
2019-02-04 21:36:45,003:DEBUG:certbot.plugins.selection:Selected authenticator <certbot.plugins.standalone.Authenticator object at 0x7f6319e4eed0> and installer None
2019-02-04 21:36:45,003:INFO:certbot.plugins.selection:Plugins selected: Authenticator standalone, Installer None
2019-02-04 21:36:45,009:DEBUG:certbot.main:Picked account: <Account(RegistrationResource(body=Registration(status=None, terms_of_service_agreed=None, agreement=None, only_return_existing=None, contact=(), key=None, external_account_binding=None), uri=u'https://acme-v02.api.letsencrypt.org/acme/acct/50682430', new_authzr_uri=None, terms_of_service=None), 0fe8779ed059c37ea728d7a026ba8058, Meta(creation_host=u'www-haproxy-01', creation_dt=datetime.datetime(2019, 2, 1, 16, 52, 42, tzinfo=<UTC>)))>
2019-02-04 21:36:45,011:DEBUG:acme.client:Sending GET request to https://acme-v02.api.letsencrypt.org/directory.
2019-02-04 21:36:45,013:DEBUG:urllib3.connectionpool:Starting new HTTPS connection (1): acme-v02.api.letsencrypt.org:443
2019-02-04 21:36:45,120:DEBUG:urllib3.connectionpool:https://acme-v02.api.letsencrypt.org:443 "GET /directory HTTP/1.1" 200 658
2019-02-04 21:36:45,121:DEBUG:acme.client:Received response:
HTTP 200
Server: nginx
Content-Type: application/json
Content-Length: 658
X-Frame-Options: DENY
Strict-Transport-Security: max-age=604800
Expires: Mon, 04 Feb 2019 18:36:45 GMT
Cache-Control: max-age=0, no-cache, no-store
Pragma: no-cache
Date: Mon, 04 Feb 2019 18:36:45 GMT
Connection: keep-alive

{
  "keyChange": "https://acme-v02.api.letsencrypt.org/acme/key-change",
  "lRXbA5PAHss": "https://community.letsencrypt.org/t/adding-random-entries-to-the-directory/33417",
  "meta": {
    "caaIdentities": [
      "letsencrypt.org"
    ],
    "termsOfService": "https://letsencrypt.org/documents/LE-SA-v1.2-November-15-2017.pdf",
    "website": "https://letsencrypt.org"
  },
  "newAccount": "https://acme-v02.api.letsencrypt.org/acme/new-acct",
  "newNonce": "https://acme-v02.api.letsencrypt.org/acme/new-nonce",
  "newOrder": "https://acme-v02.api.letsencrypt.org/acme/new-order",
  "revokeCert": "https://acme-v02.api.letsencrypt.org/acme/revoke-cert"
}
2019-02-04 21:36:45,134:INFO:certbot.renewal:Cert not yet due for renewal
2019-02-04 21:36:45,134:INFO:certbot.main:Keeping the existing certificate
